<svg width="93" height="19" viewBox="0 0 93 19" fill="none" xmlns="http://www.w3.org/2000/svg">
<path d="M10.3823 18L5.79828 11.304L3.87828 13.44V18H0.0862814V0.983999H3.87828V8.136L10.0943 0.983999H15.0863L8.46228 8.352L15.1103 18H10.3823ZM20.3929 5.664C19.4169 6.544 18.9289 7.816 18.9289 9.48C18.9289 11.144 19.4169 12.416 20.3929 13.296C21.3849 14.176 22.5369 14.616 23.8489 14.616C25.1609 14.616 26.3049 14.176 27.2809 13.296C28.2569 12.416 28.7449 11.144 28.7449 9.48C28.7449 7.816 28.2569 6.544 27.2809 5.664C26.3049 4.768 25.1609 4.32 23.8489 4.32C22.5369 4.32 21.3849 4.768 20.3929 5.664ZM14.9929 9.504C14.9929 6.864 15.8489 4.728 17.5609 3.096C19.2889 1.448 21.3849 0.623999 23.8489 0.623999C26.3129 0.623999 28.4009 1.448 30.1129 3.096C31.8249 4.744 32.6809 6.88 32.6809 9.504C32.6809 12.128 31.8249 14.264 30.1129 15.912C28.4009 17.544 26.3129 18.36 23.8489 18.36C21.3849 18.36 19.2889 17.544 17.5609 15.912C15.8489 14.264 14.9929 12.128 14.9929 9.504ZM39.7992 5.664C38.8232 6.544 38.3352 7.816 38.3352 9.48C38.3352 11.144 38.8232 12.416 39.7992 13.296C40.7912 14.176 41.9432 14.616 43.2552 14.616C44.5672 14.616 45.7112 14.176 46.6872 13.296C47.6632 12.416 48.1512 11.144 48.1512 9.48C48.1512 7.816 47.6632 6.544 46.6872 5.664C45.7112 4.768 44.5672 4.32 43.2552 4.32C41.9432 4.32 40.7912 4.768 39.7992 5.664ZM34.3992 9.504C34.3992 6.864 35.2552 4.728 36.9672 3.096C38.6952 1.448 40.7912 0.623999 43.2552 0.623999C45.7192 0.623999 47.8072 1.448 49.5192 3.096C51.2312 4.744 52.0872 6.88 52.0872 9.504C52.0872 12.128 51.2312 14.264 49.5192 15.912C47.8072 17.544 45.7192 18.36 43.2552 18.36C40.7912 18.36 38.6952 17.544 36.9672 15.912C35.2552 14.264 34.3992 12.128 34.3992 9.504ZM65.0854 18L60.5014 11.304L58.5814 13.44V18H54.7894V0.983999H58.5814V8.136L64.7974 0.983999H69.7894L63.1654 8.352L69.8134 18H65.0854ZM75.7388 18H71.8988V0.983999H75.7388V18ZM92.3102 4.608H87.0542V18H83.2622V4.608H78.0302V0.983999H92.3102V4.608Z" fill="white"/>
</svg>
